%YAML 1.1
%TAG !u! tag:unity3d.com,2011:
--- !u!21 &2100000
Material:
  serializedVersion: 6
  m_ObjectHideFlags: 0
  m_CorrespondingSourceObject: {fileID: 0}
  m_PrefabInstance: {fileID: 0}
  m_PrefabAsset: {fileID: 0}
  m_Name: PerspectiveFogMaterial
  m_Shader: {fileID: -6465566751694194690, guid: f5288294344082448bf94727582b77bb,
    type: 3}
  m_ShaderKeywords: 
  m_LightmapFlags: 4
  m_EnableInstancingVariants: 0
  m_DoubleSidedGI: 0
  m_CustomRenderQueue: -1
  stringTagMap: {}
  disabledShaderPasses: []
  m_SavedProperties:
    serializedVersion: 3
    m_TexEnvs: []
    m_Floats:
    - Boolean_9F4422B3: 0
    - Vector1_4464715: 4.87
    m_Colors:
    - Color_2A7EB63B: {r: 0.065790735, g: 0.8272837, b: 1.3962264, a: 0.6666667}
